{
  "utilities": {
    "background": [
      { "label": "Black", "value": "bg--black"},
      { "label": "White", "value": "bg--white"},
      { "label": "Red", "value": "bg--red"},
      { "label": "Blue", "value": "bg--blue"}
    ],
    "color": [
      { "label": "Black", "value": "tc--black"},
      { "label": "White", "value": "tc--white"},
      { "label": "Red", "value": "tc--red"},
      { "label": "Blue", "value": "tc--blue"}
    ],
    "border": [
      { "label": "Black", "value": "bc--black"},
      { "label": "White", "value": "bc--white"},
      { "label": "Red", "value": "bc--red"},
      { "label": "Blue", "value": "bc--blue"}
    ],
    "borderRadius": [
      { "label": "Pill", "value": "br--pill" },
      { "label": "Round", "value": "br--round" },
      { "label": "Circle", "value": "br--circle" }
    ],
    "fontSize": [
      { "label": "Extra Small", "value": "fs--xs" },
      { "label": "Small", "value": "fs--sm" },
      { "label": "Large", "value": "fs--d1" }
    ]
  }
}
